{
  "name": "runner_configure_autoscaling",
  "default_attributes": {
    "cookbook-gitlab-runner": {
      "runners": {
        "test-runner-1": {
          "global": {
            "name": "test-runner-1",
            "executor": "docker+machine"
          },
          "docker": {
            "image": "ruby:2.3"
          },
          "machine": {
            "MachineName": "machine-%s",
            "MachineDriver": "digitalocean",
            "MachineOptionsMap": {
              "digitalocean-size": "2gb"
            },
            "autoscaling": [
              {
                "Periods": [
                  "* 30-59 3-4 * * * *",
                  "* 0-30 4-5 * * * *"
                ],
                "IdleCount": 700,
                "IdleTime": 3600
              },
              {
                "Periods": [
                  "* * * * * sat,sun *"
                ],
                "IdleCount": 70,
                "IdleTime": 3600,
                "Timezone": "Europe/Berlin"
              }
            ]
          }
        }
      }
    }
  },
  "run_list": [
    "recipe[cookbook-gitlab-runner::runner_configure]"
  ]
}
